Autogenous - FST estimates
…
# Lets find the windows for which the fst values are > 0.5
chr2 <- combined_data |>
  dplyr::filter(
    CHROM == "2"
  ) |>
  dplyr::filter(
    WEIGHTED_FST >= 0.5
  )

# View the results
print(chr2)

## # A tibble: 30 x 8
##    CHROM BIN_START   BIN_END N_VARIANTS WEIGHTED_FST MEAN_FST comparison mid_pos
##    <dbl>     <dbl>     <dbl>      <dbl>        <dbl>    <dbl> <fct>        <dbl>
##  1     2 410300001 411300000         26        0.560    0.395 NEW_AUT     4.11e8
##  2     2 410400001 411400000         30        0.542    0.376 NEW_AUT     4.11e8
##  3     2 410500001 411500000         33        0.520    0.365 NEW_AUT     4.11e8
##  4     2 410600001 411600000         36        0.567    0.407 NEW_AUT     4.11e8
##  5     2 410700001 411700000         35        0.574    0.427 NEW_AUT     4.11e8
##  6     2 410800001 411800000         37        0.591    0.429 NEW_AUT     4.11e8
##  7     2 410900001 411900000         42        0.589    0.424 NEW_AUT     4.11e8
##  8     2 411000001 412000000         45        0.569    0.408 NEW_AUT     4.12e8
##  9     2 411100001 412100000         42        0.591    0.440 NEW_AUT     4.12e8
## 10     2 411200001 412200000         36        0.540    0.405 NEW_AUT     4.12e8
## # i 20 more rows
…
# Lets find the windows for which the fst values are > 0.5
chr2 <- combined_data |>
  dplyr::filter(
    CHROM == "2"
  ) |>
  dplyr::filter(
    WEIGHTED_FST >= 0.5
  )

# View the results
print(chr2)

## # A tibble: 23 x 8
##    CHROM BIN_START   BIN_END N_VARIANTS WEIGHTED_FST MEAN_FST comparison mid_pos
##    <dbl>     <dbl>     <dbl>      <dbl>        <dbl>    <dbl> <fct>        <dbl>
##  1     2 127200001 128200000          3        0.555    0.316 Males       1.28e8
##  2     2 407500001 408500000          9        0.519    0.415 Males       4.08e8
##  3     2 410200001 411200000         24        0.564    0.357 Males       4.11e8
##  4     2 410300001 411300000         25        0.650    0.450 Males       4.11e8
##  5     2 410400001 411400000         29        0.636    0.426 Males       4.11e8
##  6     2 410500001 411500000         32        0.613    0.412 Males       4.11e8
##  7     2 410600001 411600000         34        0.660    0.471 Males       4.11e8
##  8     2 410700001 411700000         34        0.660    0.470 Males       4.11e8
##  9     2 410800001 411800000         36        0.673    0.470 Males       4.11e8
## 10     2 410900001 411900000         41        0.673    0.455 Males       4.11e8
## # i 13 more rows
…
Now we can select the window and get the SNP ids

# Filter the data for Scaffold 2 and Position range
window_snps <- snps %>%
  filter(Scaffold == "2", Position >= 410800001, Position <= 412100000)

# View the results
print(window_snps) # 46 SNPs

## # A tibble: 46 x 6
##    Scaffold SNP             Cm  Position Allele1 Allele2
##    <chr>    <chr>        <int>     <dbl> <chr>   <chr>  
##  1 2        AX-579630382     0 411040898 C       T      
##  2 2        AX-579630409     0 411053076 G       C      
##  3 2        AX-579630426     0 411076185 G       A      
##  4 2        AX-579630432     0 411095416 T       G      
##  5 2        AX-579630434     0 411100836 G       C      
##  6 2        AX-579630438     0 411101050 T       G      
##  7 2        AX-579630465     0 411118768 T       C      
##  8 2        AX-579630489     0 411120151 T       C      
##  9 2        AX-579630502     0 411120383 A       C      
## 10 2        AX-579632017     0 411129367 T       C      
## # i 36 more rows
…
